Casa Nova:
- Vermelho: 721609
- Preto: 17100a
- Cinza: 646464
- Verde Escuro: 1e381f/1e381d
- Verde Claro: 4d914b

Kandarianos:
Antiga Ordem:
- Verde amarelado: 1a3003
- Verde claro: 03300
- Metal claro: 6e6e6e

Draconianos:
